EESchema Schematic File Version 4
EELAYER 30 0
EELAYER END
$Descr A3 16535 11693
encoding utf-8
Sheet 6 6
Title "PQ9ISH COMMS V/U"
Date "2019-11-26"
Rev "0.9.5"
Comp "Libre Space Foundation"
Comment1 ""
Comment2 ""
Comment3 ""
Comment4 ""
$EndDescr
Text HLabel 9100 4100 2    60   Input ~ 0
GPIO_PA3|RxD
Text HLabel 9100 4000 2    60   Input ~ 0
GPIO_PA2|TxD
Text HLabel 9100 3900 2    60   Input ~ 0
GPIO_PA1|DD
Text HLabel 7700 5300 0    60   Input ~ 0
CMD
Text HLabel 7700 6700 0    60   Input ~ 0
CLK
Text HLabel 7700 6300 0    60   Input ~ 0
D0
Text HLabel 7700 6400 0    60   Input ~ 0
D1
Text HLabel 7700 6500 0    60   Input ~ 0
D2
Text HLabel 7700 6600 0    60   Input ~ 0
D3
Text HLabel 9100 4200 2    60   Input ~ 0
SD_DET
Text HLabel 7700 5700 0    60   Input ~ 0
RF_MISO
Text HLabel 7700 5800 0    60   Input ~ 0
RF_MOSI
Text HLabel 9100 6800 2    60   Input ~ 0
RF_SCK
Text HLabel 9100 4500 2    60   Input ~ 0
RF_IRQ
Text HLabel 9100 6400 2    60   Input ~ 0
CAN1TX
Text HLabel 9100 6300 2    60   Input ~ 0
CAN1RX
$Comp
L Device:C_Small C25
U 1 1 5A7DE7BC
P 10200 3200
F 0 "C25" H 10210 3270 50  0000 L CNN
F 1 "100nF" H 10210 3120 50  0000 L CNN
F 2 "Capacitor_SMD:C_0603_1608Metric_Pad1.05x0.95mm_HandSolder" H 10200 3200 50  0001 C CNN
F 3 "" H 10200 3200 50  0001 C CNN
F 4 "C0603C104K9RACTU" H 10200 3200 50  0001 C CNN "Part Number"
	1    10200 3200
	1    0    0    -1  
$EndComp
$Comp
L Device:CP1_Small C22
U 1 1 5A7DE85A
P 9300 3200
F 0 "C22" H 9310 3270 50  0000 L CNN
F 1 "4.7uF" H 9310 3120 50  0000 L CNN
F 2 "Capacitor_SMD:C_0603_1608Metric_Pad1.05x0.95mm_HandSolder" H 9300 3200 50  0001 C CNN
F 3 "" H 9300 3200 50  0001 C CNN
F 4 "GRM188R60J475KE19D" H 9300 3200 50  0001 C CNN "Part Number"
	1    9300 3200
	1    0    0    -1  
$EndComp
$Comp
L Device:CP1_Small C27
U 1 1 5A7DE885
P 9000 2550
F 0 "C27" H 9010 2620 50  0000 L CNN
F 1 "1uF" H 9010 2470 50  0000 L CNN
F 2 "Capacitor_SMD:C_0603_1608Metric_Pad1.05x0.95mm_HandSolder" H 9000 2550 50  0001 C CNN
F 3 "" H 9000 2550 50  0001 C CNN
F 4 "CGB3B3X6S1A105K055AB" H 9000 2550 50  0001 C CNN "Part Number"
	1    9000 2550
	1    0    0    -1  
$EndComp
$Comp
L Device:C_Small C26
U 1 1 5A7DE90E
P 8750 2550
F 0 "C26" H 8760 2620 50  0000 L CNN
F 1 "10nF" H 8760 2470 50  0000 L CNN
F 2 "Capacitor_SMD:C_0603_1608Metric_Pad1.05x0.95mm_HandSolder" H 8750 2550 50  0001 C CNN
F 3 "" H 8750 2550 50  0001 C CNN
F 4 "C0603C103K9RACTU" H 8750 2550 50  0001 C CNN "Part Number"
	1    8750 2550
	1    0    0    -1  
$EndComp
$Comp
L Device:C_Small C24
U 1 1 5A7DE939
P 9900 3200
F 0 "C24" H 9910 3270 50  0000 L CNN
F 1 "100nF" H 9910 3120 50  0000 L CNN
F 2 "Capacitor_SMD:C_0603_1608Metric_Pad1.05x0.95mm_HandSolder" H 9900 3200 50  0001 C CNN
F 3 "" H 9900 3200 50  0001 C CNN
F 4 "C0603C104K9RACTU" H 9900 3200 50  0001 C CNN "Part Number"
	1    9900 3200
	1    0    0    -1  
$EndComp
$Comp
L Device:C_Small C23
U 1 1 5A7DE985
P 9600 3200
F 0 "C23" H 9610 3270 50  0000 L CNN
F 1 "100nF" H 9610 3120 50  0000 L CNN
F 2 "Capacitor_SMD:C_0603_1608Metric_Pad1.05x0.95mm_HandSolder" H 9600 3200 50  0001 C CNN
F 3 "" H 9600 3200 50  0001 C CNN
F 4 "C0603C104K9RACTU" H 9600 3200 50  0001 C CNN "Part Number"
	1    9600 3200
	1    0    0    -1  
$EndComp
$Comp
L power:GND #PWR034
U 1 1 5A7DEA89
P 8750 2700
F 0 "#PWR034" H 8750 2450 50  0001 C CNN
F 1 "GND" H 8750 2550 50  0000 C CNN
F 2 "" H 8750 2700 50  0001 C CNN
F 3 "" H 8750 2700 50  0001 C CNN
	1    8750 2700
	1    0    0    -1  
$EndComp
Wire Wire Line
	8600 3600 8600 2400
Wire Wire Line
	8600 2400 8750 2400
Wire Wire Line
	8750 2700 8750 2650
Wire Wire Line
	9000 2650 9000 2700
Wire Wire Line
	9000 2700 8750 2700
Connection ~ 8750 2400
Wire Wire Line
	8750 2400 8750 2450
Wire Wire Line
	9000 2400 9000 2450
Wire Wire Line
	10200 3100 10200 3000
Wire Wire Line
	9300 3000 9600 3000
Wire Wire Line
	8300 3000 8300 3600
Wire Wire Line
	8400 3000 8400 3600
Wire Wire Line
	8500 3000 8500 3600
Connection ~ 8400 3000
Wire Wire Line
	9900 3000 9900 3100
Wire Wire Line
	9600 3000 9600 3100
Connection ~ 9900 3000
Wire Wire Line
	9300 3000 9300 3100
Connection ~ 9600 3000
Wire Wire Line
	9300 3450 9600 3450
Wire Wire Line
	10200 3450 10200 3300
Wire Wire Line
	9900 3300 9900 3450
Connection ~ 9900 3450
Wire Wire Line
	9600 3300 9600 3450
Connection ~ 9600 3450
$Comp
L power:GND #PWR035
U 1 1 5A7DED74
P 9300 3450
F 0 "#PWR035" H 9300 3200 50  0001 C CNN
F 1 "GND" H 9300 3300 50  0000 C CNN
F 2 "" H 9300 3450 50  0001 C CNN
F 3 "" H 9300 3450 50  0001 C CNN
	1    9300 3450
	1    0    0    -1  
$EndComp
$Comp
L Device:Battery_Cell BT1
U 1 1 5A7DF13D
P 6900 3000
F 0 "BT1" H 7000 3100 50  0000 L CNN
F 1 "CR1220" H 7000 3000 50  0000 L CNN
F 2 "Battery:BatteryHolder_Keystone_3000_1x12mm" V 6900 3060 50  0001 C CNN
F 3 "https://www.mouser.com/ds/2/215/098-745922.pdf" V 6900 3060 50  0001 C CNN
F 4 "3000" H 6900 3000 50  0001 C CNN "Part Number"
	1    6900 3000
	1    0    0    -1  
$EndComp
$Comp
L power:GND #PWR037
U 1 1 5A7DF1A6
P 6900 3150
F 0 "#PWR037" H 6900 2900 50  0001 C CNN
F 1 "GND" H 6900 3000 50  0000 C CNN
F 2 "" H 6900 3150 50  0001 C CNN
F 3 "" H 6900 3150 50  0001 C CNN
	1    6900 3150
	1    0    0    -1  
$EndComp
Text HLabel 9100 4600 2    60   Input ~ 0
CAN1_EN
Wire Wire Line
	8750 2400 9000 2400
Wire Wire Line
	8300 3000 8400 3000
Wire Wire Line
	8400 3000 8500 3000
Wire Wire Line
	9900 3000 10200 3000
Wire Wire Line
	9600 3000 9900 3000
Wire Wire Line
	9900 3450 10200 3450
Wire Wire Line
	9600 3450 9900 3450
NoConn ~ 7700 6800
NoConn ~ 7700 6200
NoConn ~ 7700 6000
NoConn ~ 7700 5900
NoConn ~ 7700 5600
NoConn ~ 7700 5550
NoConn ~ 7700 5500
$Comp
L power:VCCQ #PWR032
U 1 1 5A8675BB
P 8750 2400
F 0 "#PWR032" H 8750 2250 50  0001 C CNN
F 1 "VCCQ" H 8767 2573 50  0000 C CNN
F 2 "" H 8750 2400 50  0001 C CNN
F 3 "" H 8750 2400 50  0001 C CNN
	1    8750 2400
	1    0    0    -1  
$EndComp
Wire Wire Line
	6900 2800 6900 2600
$Comp
L power:VCCQ #PWR036
U 1 1 5A868823
P 9300 3000
F 0 "#PWR036" H 9300 2850 50  0001 C CNN
F 1 "VCCQ" H 9317 3173 50  0000 C CNN
F 2 "" H 9300 3000 50  0001 C CNN
F 3 "" H 9300 3000 50  0001 C CNN
	1    9300 3000
	1    0    0    -1  
$EndComp
Connection ~ 9300 3000
Connection ~ 8750 2700
Wire Wire Line
	8700 3600 8700 3000
Wire Wire Line
	8700 3000 8500 3000
Connection ~ 8500 3000
$Comp
L power:+BATT #PWR041
U 1 1 5A86D1C4
P 6900 2600
F 0 "#PWR041" H 6900 2450 50  0001 C CNN
F 1 "+BATT" H 6750 2650 50  0000 C CNN
F 2 "" H 6900 2600 50  0001 C CNN
F 3 "" H 6900 2600 50  0001 C CNN
	1    6900 2600
	1    0    0    -1  
$EndComp
Connection ~ 6900 2600
$Comp
L power:PWR_FLAG #FLG01
U 1 1 5A874783
P 7150 2600
F 0 "#FLG01" H 7150 2675 50  0001 C CNN
F 1 "PWR_FLAG" H 7200 2650 50  0000 L CNN
F 2 "" H 7150 2600 50  0001 C CNN
F 3 "" H 7150 2600 50  0001 C CNN
	1    7150 2600
	1    0    0    -1  
$EndComp
Wire Wire Line
	8200 7500 8200 7350
Wire Wire Line
	8200 7350 8300 7350
Wire Wire Line
	8300 7350 8300 7200
Connection ~ 8200 7350
Wire Wire Line
	8200 7350 8200 7200
Wire Wire Line
	8300 7350 8400 7350
Wire Wire Line
	8400 7350 8400 7200
Connection ~ 8300 7350
Wire Wire Line
	8400 7350 8500 7350
Wire Wire Line
	8500 7350 8500 7200
Connection ~ 8400 7350
Wire Wire Line
	8500 7350 8600 7350
Wire Wire Line
	8600 7350 8600 7200
Connection ~ 8500 7350
Wire Wire Line
	9300 3450 9300 3300
Connection ~ 9300 3450
Wire Wire Line
	7150 2600 6900 2600
Text HLabel 9100 5100 2    50   Input ~ 0
SWDIO
Text HLabel 9100 5200 2    50   Input ~ 0
SWCLK
Text HLabel 9100 5800 2    50   Input ~ 0
JTDO
Text HLabel 9100 4800 2    60   Input ~ 0
AX5043_SEL
NoConn ~ 9100 4300
Connection ~ 7150 2600
Text HLabel 9100 3800 2    50   Input ~ 0
PA_PDet
$Comp
L Device:R R16
U 1 1 5AD7E8B8
P 7550 4150
F 0 "R16" H 7620 4196 50  0000 L CNN
F 1 "10k" H 7620 4105 50  0000 L CNN
F 2 "Resistor_SMD:R_0603_1608Metric_Pad1.05x0.95mm_HandSolder" V 7480 4150 50  0001 C CNN
F 3 "~" H 7550 4150 50  0001 C CNN
F 4 "RE0603BRE0710KL" H 0   0   50  0001 C CNN "Part Number"
	1    7550 4150
	1    0    0    -1  
$EndComp
$Comp
L power:GND #PWR0101
U 1 1 5AD7F2D2
P 7550 4350
F 0 "#PWR0101" H 7550 4100 50  0001 C CNN
F 1 "GND" H 7550 4200 50  0000 C CNN
F 2 "" H 7550 4350 50  0001 C CNN
F 3 "" H 7550 4350 50  0001 C CNN
	1    7550 4350
	1    0    0    -1  
$EndComp
Wire Wire Line
	7550 4300 7550 4350
Text Label 7550 4000 2    50   ~ 0
BOOT0
$Comp
L power:VCCQ #PWR0103
U 1 1 5AD82062
P 7600 3350
F 0 "#PWR0103" H 7600 3200 50  0001 C CNN
F 1 "VCCQ" H 7617 3523 50  0000 C CNN
F 2 "" H 7600 3350 50  0001 C CNN
F 3 "" H 7600 3350 50  0001 C CNN
	1    7600 3350
	1    0    0    -1  
$EndComp
Wire Wire Line
	7600 3350 7600 3400
Wire Wire Line
	7600 3800 7700 3800
Wire Wire Line
	7550 4000 7700 4000
$Comp
L Device:R R3
U 1 1 5AE24072
P 7600 3550
F 0 "R3" H 7670 3596 50  0000 L CNN
F 1 "10k" H 7670 3505 50  0000 L CNN
F 2 "Resistor_SMD:R_0603_1608Metric_Pad1.05x0.95mm_HandSolder" V 7530 3550 50  0001 C CNN
F 3 "~" H 7600 3550 50  0001 C CNN
F 4 "RE0603BRE0710KL" H 0   0   50  0001 C CNN "Part Number"
	1    7600 3550
	1    0    0    -1  
$EndComp
Wire Wire Line
	7600 3700 7600 3800
$Comp
L MCU_ST_STM32L4:STM32L476RGTx U1
U 1 1 5AE280F4
P 8400 5400
F 0 "U1" H 8400 5200 50  0000 C CNN
F 1 "STM32L476RGTx" H 8400 5050 50  0000 C CNN
F 2 "Package_QFP:LQFP-64_10x10mm_P0.5mm" H 7800 3700 50  0001 R CNN
F 3 "http://www.st.com/st-web-ui/static/active/en/resource/technical/document/datasheet/DM00108832.pdf" H 8400 5400 50  0001 C CNN
F 4 "STM32L476RGT6" H 0   0   50  0001 C CNN "Part Number"
	1    8400 5400
	1    0    0    -1  
$EndComp
NoConn ~ 9100 5500
NoConn ~ 9100 5700
NoConn ~ 9100 5600
NoConn ~ 9100 6000
NoConn ~ 9100 6100
NoConn ~ 9100 6200
NoConn ~ 9100 6700
NoConn ~ 9100 6900
NoConn ~ 9100 7000
Wire Wire Line
	9300 3000 8700 3000
Connection ~ 8700 3000
Wire Wire Line
	8200 3600 8200 2600
Wire Wire Line
	7150 2600 8200 2600
Text HLabel 7600 3800 0    50   Input ~ 0
NRST
Wire Wire Line
	7700 6900 6850 6900
Wire Wire Line
	6850 6900 6850 6700
Text Label 7500 6900 2    50   ~ 0
RCC_OSC32_IN
Wire Wire Line
	6400 7000 7700 7000
Text Label 7500 7000 2    50   ~ 0
RCC_OSC32_OUT
$Comp
L Device:Crystal Y1
U 1 1 5C4E8944
P 6400 6850
F 0 "Y1" V 6354 6981 50  0000 L CNN
F 1 "32768Hz" V 6400 6350 50  0000 L CNN
F 2 "Crystal:Crystal_SMD_3215-2Pin_3.2x1.5mm" H 6400 6850 50  0001 C CNN
F 3 "~" H 6400 6850 50  0001 C CNN
F 4 "ABS07-32.768KHZ-7-T" V 6400 6850 50  0001 C CNN "Part Number"
	1    6400 6850
	0    1    1    0   
$EndComp
Wire Wire Line
	6850 6700 6400 6700
$Comp
L Device:C C34
U 1 1 5C4EAE89
P 6400 7250
F 0 "C34" H 6515 7296 50  0000 L CNN
F 1 "12pF" H 6515 7205 50  0000 L CIN
F 2 "Capacitor_SMD:C_0603_1608Metric" H 6438 7100 50  0001 C CNN
F 3 "~" H 6400 7250 50  0001 C CNN
F 4 "CBR06C120FAGAC" H 6400 7250 50  0001 C CNN "Part Number"
	1    6400 7250
	1    0    0    -1  
$EndComp
$Comp
L Device:C C7
U 1 1 5C4EAEE1
P 6400 6450
F 0 "C7" H 6515 6496 50  0000 L CNN
F 1 "12pF" H 6515 6405 50  0000 L CNN
F 2 "Capacitor_SMD:C_0603_1608Metric" H 6438 6300 50  0001 C CNN
F 3 "~" H 6400 6450 50  0001 C CNN
F 4 "CBR06C120FAGAC" H 6400 6450 50  0001 C CNN "Part Number"
	1    6400 6450
	1    0    0    -1  
$EndComp
Wire Wire Line
	6400 6200 6400 6300
Wire Wire Line
	6400 6600 6400 6700
Connection ~ 6400 6700
Wire Wire Line
	6400 7000 6400 7100
Connection ~ 6400 7000
Wire Wire Line
	6400 7400 6400 7500
Text Label 5000 7300 0    50   ~ 0
XTAL_GND_Plane
$Comp
L Device:Net-Tie_2 NT1
U 1 1 5C577670
P 4900 7300
F 0 "NT1" H 4900 7478 50  0000 C CNN
F 1 "Net-Tie_2" H 4900 7387 50  0000 C CNN
F 2 "NetTie:NetTie-2_SMD_Pad0.5mm" H 4900 7300 50  0001 C CNN
F 3 "~" H 4900 7300 50  0001 C CNN
	1    4900 7300
	1    0    0    -1  
$EndComp
$Comp
L power:GND #PWR0106
U 1 1 5C578D90
P 4800 7400
F 0 "#PWR0106" H 4800 7150 50  0001 C CNN
F 1 "GND" H 4805 7227 50  0000 C CNN
F 2 "" H 4800 7400 50  0001 C CNN
F 3 "" H 4800 7400 50  0001 C CNN
	1    4800 7400
	1    0    0    -1  
$EndComp
Wire Wire Line
	4800 7400 4800 7300
$Comp
L power:PWR_FLAG #FLG0101
U 1 1 5C582212
P 5000 7300
F 0 "#FLG0101" H 5000 7375 50  0001 C CNN
F 1 "PWR_FLAG" H 4800 7500 50  0000 C CNN
F 2 "" H 5000 7300 50  0001 C CNN
F 3 "~" H 5000 7300 50  0001 C CNN
	1    5000 7300
	-1   0    0    1   
$EndComp
NoConn ~ 9100 5300
NoConn ~ 9100 5900
Text Label 6400 7500 0    50   ~ 0
XTAL_GND_Plane
Text Label 6400 6250 0    50   ~ 0
XTAL_GND_Plane
$Comp
L Power_Protection:USBLC6-2SC6 U8
U 1 1 5CE29B23
P 10750 4950
F 0 "U8" V 10600 5250 50  0000 L CNN
F 1 "USBLC6-2SC6" V 10500 5250 50  0000 L CNN
F 2 "Package_TO_SOT_SMD:SOT-23-6" H 10000 5350 50  0001 C CNN
F 3 "http://www2.st.com/resource/en/datasheet/CD00050750.pdf" H 10950 5300 50  0001 C CNN
F 4 "USBLC6-2SC6" H 10750 4950 50  0001 C CNN "Part Number"
F 5 "USB" V 10750 4950 50  0001 C CNN "Variant"
	1    10750 4950
	0    1    1    0   
$EndComp
Wire Wire Line
	12050 4900 11750 4900
Wire Wire Line
	11750 4900 11750 4450
Wire Wire Line
	11750 4450 10850 4450
Wire Wire Line
	12050 5000 11750 5000
Wire Wire Line
	11750 5000 11750 5450
Wire Wire Line
	11750 5450 10850 5450
Wire Wire Line
	12050 4700 11800 4700
Wire Wire Line
	11800 4700 11800 4950
Wire Wire Line
	11800 4950 11250 4950
$Comp
L power:GND #PWR033
U 1 1 5A7DE5F9
P 8200 7500
F 0 "#PWR033" H 8200 7250 50  0001 C CNN
F 1 "GND" H 8200 7350 50  0000 C CNN
F 2 "" H 8200 7500 50  0001 C CNN
F 3 "" H 8200 7500 50  0001 C CNN
	1    8200 7500
	1    0    0    -1  
$EndComp
Wire Wire Line
	12350 5450 12350 5300
Wire Wire Line
	9950 5000 9950 4450
Wire Wire Line
	9950 4450 10650 4450
Wire Wire Line
	9100 5000 9950 5000
Wire Wire Line
	9100 4900 9900 4900
Wire Wire Line
	9900 4900 9900 5450
Wire Wire Line
	9900 5450 10650 5450
$Comp
L Device:R R13
U 1 1 5CE544DF
P 10700 4000
F 0 "R13" V 10493 4000 50  0000 C CNN
F 1 "68K" V 10584 4000 50  0000 C CNN
F 2 "Resistor_SMD:R_0603_1608Metric_Pad1.05x0.95mm_HandSolder" V 10630 4000 50  0001 C CNN
F 3 "~" H 10700 4000 50  0001 C CNN
F 4 "CRCW060368K0FKEAC" H 10700 4000 50  0001 C CNN "Part Number"
F 5 "USB" V 10700 4000 50  0001 C CNN "Variant"
	1    10700 4000
	0    1    1    0   
$EndComp
$Comp
L Device:R R14
U 1 1 5CE557E9
P 11200 4000
F 0 "R14" V 10993 4000 50  0000 C CNN
F 1 "47K" V 11084 4000 50  0000 C CNN
F 2 "Resistor_SMD:R_0603_1608Metric_Pad1.05x0.95mm_HandSolder" V 11130 4000 50  0001 C CNN
F 3 "~" H 11200 4000 50  0001 C CNN
F 4 "CRCW060347K0FKEAC" H 11200 4000 50  0001 C CNN "Part Number"
F 5 "USB" V 11200 4000 50  0001 C CNN "Variant"
	1    11200 4000
	0    1    1    0   
$EndComp
$Comp
L power:GND #PWR0108
U 1 1 5CE55DD0
P 10550 4150
F 0 "#PWR0108" H 10550 3900 50  0001 C CNN
F 1 "GND" H 10555 3977 50  0000 C CNN
F 2 "" H 10550 4150 50  0001 C CNN
F 3 "" H 10550 4150 50  0001 C CNN
	1    10550 4150
	1    0    0    -1  
$EndComp
Wire Wire Line
	9100 4700 9900 4700
Wire Wire Line
	9900 4700 9900 4400
Wire Wire Line
	9900 4400 10950 4400
Wire Wire Line
	10950 4400 10950 4000
Wire Wire Line
	10950 4000 11050 4000
Wire Wire Line
	11350 4000 11800 4000
Wire Wire Line
	11800 4000 11800 4700
Connection ~ 11800 4700
Wire Wire Line
	10550 4150 10550 4000
$Comp
L power:GND #PWR0109
U 1 1 5CE73C48
P 10250 5100
F 0 "#PWR0109" H 10250 4850 50  0001 C CNN
F 1 "GND" H 10255 4927 50  0000 C CNN
F 2 "" H 10250 5100 50  0001 C CNN
F 3 "" H 10250 5100 50  0001 C CNN
	1    10250 5100
	1    0    0    -1  
$EndComp
Wire Wire Line
	10250 5100 10250 4950
Wire Wire Line
	10850 4000 10950 4000
Connection ~ 10950 4000
Wire Wire Line
	6900 3100 6900 3150
NoConn ~ 12050 5100
$Comp
L power:GND #PWR0107
U 1 1 5CEB204F
P 12350 5450
F 0 "#PWR0107" H 12350 5200 50  0001 C CNN
F 1 "GND" H 12355 5277 50  0000 C CNN
F 2 "" H 12350 5450 50  0001 C CNN
F 3 "" H 12350 5450 50  0001 C CNN
	1    12350 5450
	1    0    0    -1  
$EndComp
$Comp
L Connector:USB_B_Micro J6
U 1 1 5CE2C8A7
P 12350 4900
F 0 "J6" H 12120 4889 50  0000 R CNN
F 1 "USB_B_Micro" H 12120 4798 50  0000 R CNN
F 2 "Digikey:USB_Micro_B_Female_10118193-0001LF" H 12500 4850 50  0001 C CNN
F 3 "~" H 12500 4850 50  0001 C CNN
F 4 "10118193-0001LF" H 12350 4900 50  0001 C CNN "Part Number"
F 5 "USB" H 12350 4900 50  0001 C CNN "Variant"
	1    12350 4900
	-1   0    0    -1  
$EndComp
Wire Wire Line
	12450 5300 12350 5300
Connection ~ 12350 5300
Text Label 9500 4900 0    50   ~ 0
USB_D_N
Text Label 9500 5000 0    50   ~ 0
USB_D_P
Text Label 11900 4900 0    50   ~ 0
D+
Text Label 11900 5000 0    50   ~ 0
D-
Text HLabel 7700 6100 0    50   Input ~ 0
CAN_STB
$Comp
L lsf-kicad:ECS-TXO-2016 U11
U 1 1 5D7A946E
P 5650 5000
F 0 "U11" H 5950 5400 50  0000 L CNN
F 1 "ECS-TXO-2016" H 4900 5400 50  0000 L CNN
F 2 "lsf-kicad-lib:Oscillator_SMD_ECS_TXO-2016-xx-xxx-4Pin_2x1.6mm" H 5650 5000 50  0001 C CNN
F 3 "https://ecsxtal.com/store/pdf/ECS-TXO-2016.pdf" H 5650 5000 50  0001 C CNN
F 4 "ECS-TXO-2016-33-320" H 5650 5000 50  0001 C CNN "Part Number"
	1    5650 5000
	1    0    0    -1  
$EndComp
$Comp
L power:GND #PWR065
U 1 1 5D7AA157
P 5650 5500
F 0 "#PWR065" H 5650 5250 50  0001 C CNN
F 1 "GND" H 5655 5327 50  0000 C CNN
F 2 "" H 5650 5500 50  0001 C CNN
F 3 "" H 5650 5500 50  0001 C CNN
	1    5650 5500
	1    0    0    -1  
$EndComp
$Comp
L power:VCCQ #PWR049
U 1 1 5D7AA8BB
P 5650 3750
F 0 "#PWR049" H 5650 3600 50  0001 C CNN
F 1 "VCCQ" H 5667 3923 50  0000 C CNN
F 2 "" H 5650 3750 50  0001 C CNN
F 3 "" H 5650 3750 50  0001 C CNN
	1    5650 3750
	1    0    0    -1  
$EndComp
Wire Wire Line
	5650 3750 5650 3900
Wire Wire Line
	5650 5400 5650 5500
$Comp
L Device:R R7
U 1 1 5D7AF668
P 4750 5350
F 0 "R7" H 4820 5396 50  0000 L CNN
F 1 "0" H 4820 5305 50  0000 L CNN
F 2 "Resistor_SMD:R_0603_1608Metric_Pad1.05x0.95mm_HandSolder" V 4680 5350 50  0001 C CNN
F 3 "~" H 4750 5350 50  0001 C CNN
	1    4750 5350
	1    0    0    -1  
$EndComp
Wire Wire Line
	7700 5100 6250 5100
Wire Wire Line
	6250 5100 6250 5750
Wire Wire Line
	6250 5750 4750 5750
Wire Wire Line
	4750 5750 4750 5500
Wire Wire Line
	4750 5000 5150 5000
Wire Wire Line
	4750 5200 4750 5000
Wire Wire Line
	6150 5000 7700 5000
$Comp
L Device:C C42
U 1 1 5D7C1A87
P 5200 4050
F 0 "C42" H 5315 4096 50  0000 L CNN
F 1 "100nF" H 5315 4005 50  0000 L CNN
F 2 "Capacitor_SMD:C_0603_1608Metric_Pad1.05x0.95mm_HandSolder" H 5238 3900 50  0001 C CNN
F 3 "~" H 5200 4050 50  0001 C CNN
F 4 "C0603C104K9RACTU" H 5200 4050 50  0001 C CNN "Part Number"
	1    5200 4050
	1    0    0    -1  
$EndComp
Wire Wire Line
	5200 3900 5650 3900
Connection ~ 5650 3900
Wire Wire Line
	5650 3900 5650 4600
$Comp
L power:GND #PWR066
U 1 1 5D7C4E6A
P 5200 4250
F 0 "#PWR066" H 5200 4000 50  0001 C CNN
F 1 "GND" H 5205 4077 50  0000 C CNN
F 2 "" H 5200 4250 50  0001 C CNN
F 3 "" H 5200 4250 50  0001 C CNN
	1    5200 4250
	1    0    0    -1  
$EndComp
Wire Wire Line
	5200 4250 5200 4200
Text Notes 3600 5400 0    50   ~ 0
Do not place for always on
$Comp
L power:VCCQ #PWR053
U 1 1 5D85E94C
P 4150 7300
F 0 "#PWR053" H 4150 7150 50  0001 C CNN
F 1 "VCCQ" V 4167 7428 50  0000 L CNN
F 2 "" H 4150 7300 50  0001 C CNN
F 3 "" H 4150 7300 50  0001 C CNN
	1    4150 7300
	0    1    1    0   
$EndComp
Wire Wire Line
	3950 7300 4100 7300
$Comp
L Device:Ferrite_Bead FB1
U 1 1 5D864E18
P 3800 7300
F 0 "FB1" V 3526 7300 50  0000 C CNN
F 1 "Ferrite_Bead" V 3617 7300 50  0000 C CNN
F 2 "Inductor_SMD:L_0603_1608Metric_Pad1.05x0.95mm_HandSolder" V 3730 7300 50  0001 C CNN
F 3 "~" H 3800 7300 50  0001 C CNN
F 4 "742792664" H 3800 7300 50  0001 C CNN "Part Number"
	1    3800 7300
	0    1    1    0   
$EndComp
Wire Wire Line
	3450 7300 3650 7300
$Comp
L power:+3.3V #PWR0122
U 1 1 5D85DFB9
P 3450 7300
F 0 "#PWR0122" H 3450 7150 50  0001 C CNN
F 1 "+3.3V" V 3465 7428 50  0000 L CNN
F 2 "" H 3450 7300 50  0001 C CNN
F 3 "" H 3450 7300 50  0001 C CNN
	1    3450 7300
	0    -1   -1   0   
$EndComp
$Comp
L power:PWR_FLAG #FLG0105
U 1 1 5D8B2696
P 4100 7050
F 0 "#FLG0105" H 4100 7125 50  0001 C CNN
F 1 "PWR_FLAG" H 4100 7223 50  0000 C CNN
F 2 "" H 4100 7050 50  0001 C CNN
F 3 "~" H 4100 7050 50  0001 C CNN
	1    4100 7050
	1    0    0    -1  
$EndComp
Wire Wire Line
	4100 7050 4100 7300
Connection ~ 4100 7300
Wire Wire Line
	4100 7300 4150 7300
Text HLabel 9100 6500 2    50   Input ~ 0
PB10|SCL|TX
Text HLabel 9100 6600 2    50   Input ~ 0
PB11|SDA|RX
NoConn ~ 9100 4400
$Comp
L Device:Jumper_NO_Small JP5
U 1 1 5DDCED8B
P 11800 3900
F 0 "JP5" V 11754 3948 50  0000 L CNN
F 1 "Jumper_NO_Small" V 11845 3948 50  0000 L CNN
F 2 "Jumper:SolderJumper-2_P1.3mm_Open_Pad1.0x1.5mm" H 11800 3900 50  0001 C CNN
F 3 "~" H 11800 3900 50  0001 C CNN
	1    11800 3900
	0    1    1    0   
$EndComp
Connection ~ 11800 4000
$Comp
L power:+5V #PWR064
U 1 1 5DDD0218
P 11800 3650
F 0 "#PWR064" H 11800 3500 50  0001 C CNN
F 1 "+5V" H 11815 3823 50  0000 C CNN
F 2 "" H 11800 3650 50  0001 C CNN
F 3 "" H 11800 3650 50  0001 C CNN
	1    11800 3650
	1    0    0    -1  
$EndComp
Wire Wire Line
	11800 3650 11800 3800
$EndSCHEMATC
