EESchema Schematic File Version 4
EELAYER 30 0
EELAYER END
$Descr A4 11693 8268
encoding utf-8
Sheet 1 6
Title "PQ9ISH COMMS V/U"
Date "2019-11-26"
Rev "0.9.5"
Comp "Libre Space Foundation"
Comment1 ""
Comment2 ""
Comment3 ""
Comment4 ""
$EndDescr
$Sheet
S 3350 3100 1250 1050
U 5A285DD6
F0 "Radio" 60
F1 "Radio.sch" 60
F2 "AX5043_SEL" I R 4600 3200 60 
F3 "RF_MISO" O R 4600 3350 60 
F4 "RF_MOSI" I R 4600 3500 60 
F5 "RF_SCK" I R 4600 3650 60 
F6 "RF_IRQ" O R 4600 3800 60 
F7 "PA_PDet" O R 4600 4000 50 
$EndSheet
$Sheet
S 3350 1450 1250 1300
U 5A285E0E
F0 "Data Logging" 60
F1 "Data_logging.sch" 60
F2 "CMD" I R 4600 1600 60 
F3 "CLK" I R 4600 1750 60 
F4 "D0" B R 4600 1900 60 
F5 "D1" B R 4600 2050 60 
F6 "D2" B R 4600 2200 60 
F7 "D3" B R 4600 2350 60 
F8 "SD_DET" O R 4600 2500 60 
$EndSheet
Wire Wire Line
	4600 1600 5350 1600
Wire Wire Line
	5350 1750 4600 1750
Wire Wire Line
	4600 1900 5350 1900
Wire Wire Line
	5350 2050 4600 2050
Wire Wire Line
	5350 2200 4600 2200
Wire Wire Line
	4600 2350 5350 2350
Wire Wire Line
	5350 2500 4600 2500
$Sheet
S 8400 1450 1050 1400
U 5A289551
F0 "PQ Bus" 60
F1 "PQ_Bus.sch" 60
F2 "CAN1TX" I L 8400 2100 60 
F3 "CAN1RX" O L 8400 2200 60 
F4 "CanEn" I L 8400 2300 60 
F5 "CAN_STB" I L 8400 2400 50 
F6 "1-Wire|Opt1" B L 8400 1850 50 
F7 "D-|Opt2" B L 8400 1950 50 
$EndSheet
Wire Wire Line
	4600 3200 5350 3200
Wire Wire Line
	5350 3350 4600 3350
Wire Wire Line
	7300 2100 8400 2100
Wire Wire Line
	8400 2200 7300 2200
Wire Wire Line
	7300 2300 8400 2300
$Comp
L Connector_Generic:Conn_01x04 J3
U 1 1 5A8765CF
P 7950 3450
F 0 "J3" H 8030 3492 50  0000 L CNN
F 1 "AUX" H 8030 3401 50  0000 L CNN
F 2 "Connector_JST:JST_SH_SM04B-SRSS-TB_1x04-1MP_P1.00mm_Horizontal" H 7950 3450 50  0001 C CNN
F 3 "~" H 7950 3450 50  0001 C CNN
F 4 "SM04B-SRSS-TB" H 0   0   50  0001 C CNN "Part Number"
	1    7950 3450
	1    0    0    -1  
$EndComp
$Comp
L Connector_Generic:Conn_01x06 J4
U 1 1 5A943331
P 7950 4200
F 0 "J4" H 8030 4192 50  0000 L CNN
F 1 "SWD" H 8030 4101 50  0000 L CNN
F 2 "Connector_JST:JST_SH_SM06B-SRSS-TB_1x06-1MP_P1.00mm_Horizontal" H 7950 4200 50  0001 C CNN
F 3 "" H 7950 4200 50  0001 C CNN
F 4 "SM06B-SRSS-TB" H 0   0   50  0001 C CNN "Part Number"
	1    7950 4200
	1    0    0    -1  
$EndComp
$Comp
L power:GND #PWR059
U 1 1 5A945B9F
P 7650 4200
F 0 "#PWR059" H 7650 3950 50  0001 C CNN
F 1 "GND" V 7655 4072 50  0000 R CNN
F 2 "" H 7650 4200 50  0001 C CNN
F 3 "" H 7650 4200 50  0001 C CNN
	1    7650 4200
	0    1    1    0   
$EndComp
Wire Wire Line
	7650 4200 7750 4200
Wire Wire Line
	7750 4100 7300 4100
Wire Wire Line
	7300 4300 7750 4300
Wire Wire Line
	7750 4400 7300 4400
$Comp
L power:GND #PWR0104
U 1 1 5AE1B1AC
P 7650 3650
F 0 "#PWR0104" H 7650 3400 50  0001 C CNN
F 1 "GND" V 7655 3522 50  0000 R CNN
F 2 "" H 7650 3650 50  0001 C CNN
F 3 "" H 7650 3650 50  0001 C CNN
	1    7650 3650
	0    1    1    0   
$EndComp
Wire Wire Line
	7300 3550 7750 3550
Wire Wire Line
	7750 3450 7300 3450
Wire Wire Line
	7300 3350 7750 3350
Wire Wire Line
	7650 3650 7750 3650
$Comp
L power:VCCQ #PWR0105
U 1 1 5CE04C56
P 7650 4000
F 0 "#PWR0105" H 7650 3850 50  0001 C CNN
F 1 "VCCQ" V 7668 4127 50  0000 L CNN
F 2 "" H 7650 4000 50  0001 C CNN
F 3 "" H 7650 4000 50  0001 C CNN
	1    7650 4000
	0    -1   -1   0   
$EndComp
Wire Wire Line
	7650 4000 7750 4000
Wire Wire Line
	7750 4500 7300 4500
Wire Wire Line
	4600 4000 5350 4000
Wire Wire Line
	4600 3800 5350 3800
Wire Wire Line
	5350 3650 4600 3650
Wire Wire Line
	4600 3500 5350 3500
$Sheet
S 5350 1450 1950 3350
U 5A285DD1
F0 "MCU" 60
F1 "MCU.sch" 60
F2 "CMD" O L 5350 1600 60 
F3 "CLK" O L 5350 1750 60 
F4 "D0" B L 5350 1900 60 
F5 "D1" B L 5350 2050 60 
F6 "D2" B L 5350 2200 60 
F7 "D3" B L 5350 2350 60 
F8 "SD_DET" I L 5350 2500 60 
F9 "RF_MISO" I L 5350 3350 60 
F10 "RF_MOSI" O L 5350 3500 60 
F11 "RF_SCK" O L 5350 3650 60 
F12 "RF_IRQ" I L 5350 3800 60 
F13 "CAN1TX" O R 7300 2100 60 
F14 "CAN1RX" I R 7300 2200 60 
F15 "CAN1_EN" I R 7300 2300 60 
F16 "SWDIO" B R 7300 4300 50 
F17 "SWCLK" I R 7300 4100 50 
F18 "JTDO" O R 7300 4500 50 
F19 "PA_PDet" I L 5350 4000 50 
F20 "NRST" I R 7300 4400 50 
F21 "CAN_STB" I R 7300 2400 50 
F22 "AX5043_SEL" O L 5350 3200 50 
F23 "GPIO_PA3|RxD" I R 7300 3350 50 
F24 "GPIO_PA2|TxD" I R 7300 3450 50 
F25 "GPIO_PA1|DD" I R 7300 3550 50 
F26 "PB10|SCL|TX" I R 7300 1850 50 
F27 "PB11|SDA|RX" I R 7300 1950 50 
$EndSheet
$Comp
L Regulator_Linear:LM1117-3.3 U10
U 1 1 5CE6F4F9
P 9750 4250
F 0 "U10" H 9750 4492 50  0000 C CNN
F 1 "LM1117-3.3" H 9750 4401 50  0000 C CNN
F 2 "Package_TO_SOT_SMD:SOT-223-3_TabPin2" H 9750 4250 50  0001 C CNN
F 3 "http://www.ti.com/lit/ds/symlink/lm1117.pdf" H 9750 4250 50  0001 C CNN
F 4 "LM1117MPX-3.3" H 9750 4250 50  0001 C CNN "Part Number"
F 5 "5V" H 9750 4250 50  0001 C CNN "Variant"
	1    9750 4250
	1    0    0    -1  
$EndComp
$Comp
L power:+5V #PWR057
U 1 1 5CE70289
P 9100 4250
F 0 "#PWR057" H 9100 4100 50  0001 C CNN
F 1 "+5V" V 9115 4378 50  0000 L CNN
F 2 "" H 9100 4250 50  0001 C CNN
F 3 "" H 9100 4250 50  0001 C CNN
	1    9100 4250
	0    -1   -1   0   
$EndComp
$Comp
L Device:C_Small C35
U 1 1 5CE73858
P 9250 4500
F 0 "C35" H 9342 4546 50  0000 L CNN
F 1 "10uF" H 9342 4455 50  0000 L CNN
F 2 "Capacitor_SMD:C_0603_1608Metric" H 9250 4500 50  0001 C CNN
F 3 "~" H 9250 4500 50  0001 C CNN
F 4 "GRM188C81A106KA73D" H 9250 4500 50  0001 C CNN "Part Number"
F 5 "5V" H 9250 4500 50  0001 C CNN "Variant"
	1    9250 4500
	1    0    0    -1  
$EndComp
$Comp
L Device:C_Small C37
U 1 1 5CE73B4B
P 10150 4500
F 0 "C37" H 10242 4546 50  0000 L CNN
F 1 "10uF" H 10250 4400 50  0000 L CNN
F 2 "Capacitor_SMD:C_0603_1608Metric" H 10150 4500 50  0001 C CNN
F 3 "~" H 10150 4500 50  0001 C CNN
F 4 "GRM188C81A106KA73D" H 10150 4500 50  0001 C CNN "Part Number"
	1    10150 4500
	1    0    0    -1  
$EndComp
$Comp
L Device:C_Small C38
U 1 1 5CE73E5C
P 10450 4500
F 0 "C38" H 10542 4546 50  0000 L CNN
F 1 "100nF" H 10542 4455 50  0000 L CNN
F 2 "Capacitor_SMD:C_0603_1608Metric" H 10450 4500 50  0001 C CNN
F 3 "~" H 10450 4500 50  0001 C CNN
F 4 "C0603C104K9RACTU" H 10450 4500 50  0001 C CNN "Part Number"
	1    10450 4500
	1    0    0    -1  
$EndComp
$Comp
L power:GND #PWR060
U 1 1 5CE7473B
P 9250 4700
F 0 "#PWR060" H 9250 4450 50  0001 C CNN
F 1 "GND" H 9255 4527 50  0000 C CNN
F 2 "" H 9250 4700 50  0001 C CNN
F 3 "" H 9250 4700 50  0001 C CNN
	1    9250 4700
	1    0    0    -1  
$EndComp
$Comp
L power:GND #PWR061
U 1 1 5CE74BE1
P 9750 4700
F 0 "#PWR061" H 9750 4450 50  0001 C CNN
F 1 "GND" H 9755 4527 50  0000 C CNN
F 2 "" H 9750 4700 50  0001 C CNN
F 3 "" H 9750 4700 50  0001 C CNN
	1    9750 4700
	1    0    0    -1  
$EndComp
$Comp
L power:GND #PWR062
U 1 1 5CE74DD6
P 10150 4700
F 0 "#PWR062" H 10150 4450 50  0001 C CNN
F 1 "GND" H 10155 4527 50  0000 C CNN
F 2 "" H 10150 4700 50  0001 C CNN
F 3 "" H 10150 4700 50  0001 C CNN
	1    10150 4700
	1    0    0    -1  
$EndComp
$Comp
L power:GND #PWR063
U 1 1 5CE74F4B
P 10450 4700
F 0 "#PWR063" H 10450 4450 50  0001 C CNN
F 1 "GND" H 10455 4527 50  0000 C CNN
F 2 "" H 10450 4700 50  0001 C CNN
F 3 "" H 10450 4700 50  0001 C CNN
	1    10450 4700
	1    0    0    -1  
$EndComp
Wire Wire Line
	9100 4250 9250 4250
Wire Wire Line
	9250 4400 9250 4250
Connection ~ 9250 4250
Wire Wire Line
	9250 4250 9450 4250
Wire Wire Line
	9250 4600 9250 4700
Wire Wire Line
	9750 4550 9750 4700
Wire Wire Line
	10050 4250 10150 4250
Wire Wire Line
	10450 4400 10450 4250
Connection ~ 10450 4250
Wire Wire Line
	10450 4250 10550 4250
Wire Wire Line
	10150 4400 10150 4250
Connection ~ 10150 4250
Wire Wire Line
	10150 4250 10450 4250
Wire Wire Line
	10150 4600 10150 4700
Wire Wire Line
	10450 4600 10450 4700
Wire Wire Line
	7300 2400 8400 2400
$Comp
L power:+3.3V #PWR023
U 1 1 5D8577F3
P 10550 4250
F 0 "#PWR023" H 10550 4100 50  0001 C CNN
F 1 "+3.3V" V 10565 4378 50  0000 L CNN
F 2 "" H 10550 4250 50  0001 C CNN
F 3 "" H 10550 4250 50  0001 C CNN
	1    10550 4250
	0    1    1    0   
$EndComp
Wire Wire Line
	8400 1950 7300 1950
Wire Wire Line
	8400 1850 7300 1850
Text Notes 7350 3550 0    50   ~ 0
ANT Deploy
Text Notes 7350 3450 0    50   ~ 0
ANT Sense
Text Notes 7350 3350 0    50   ~ 0
Batt Volts
$Comp
L Mechanical:MountingHole H1
U 1 1 5DDE5BB4
P 850 6450
F 0 "H1" H 950 6496 50  0000 L CNN
F 1 "MountingHole" H 950 6405 50  0000 L CNN
F 2 "MountingHole:MountingHole_2.5mm_Pad" H 850 6450 50  0001 C CNN
F 3 "~" H 850 6450 50  0001 C CNN
	1    850  6450
	1    0    0    -1  
$EndComp
$Comp
L Mechanical:MountingHole H2
U 1 1 5DDE5EB7
P 850 6650
F 0 "H2" H 950 6696 50  0000 L CNN
F 1 "MountingHole" H 950 6605 50  0000 L CNN
F 2 "MountingHole:MountingHole_2.5mm_Pad" H 850 6650 50  0001 C CNN
F 3 "~" H 850 6650 50  0001 C CNN
	1    850  6650
	1    0    0    -1  
$EndComp
$Comp
L Mechanical:MountingHole H3
U 1 1 5DDE5EF5
P 850 6850
F 0 "H3" H 950 6896 50  0000 L CNN
F 1 "MountingHole" H 950 6805 50  0000 L CNN
F 2 "MountingHole:MountingHole_2.5mm_Pad" H 850 6850 50  0001 C CNN
F 3 "~" H 850 6850 50  0001 C CNN
	1    850  6850
	1    0    0    -1  
$EndComp
$Comp
L Mechanical:MountingHole H4
U 1 1 5DDE601F
P 850 7050
F 0 "H4" H 950 7096 50  0000 L CNN
F 1 "MountingHole" H 950 7005 50  0000 L CNN
F 2 "MountingHole:MountingHole_2.5mm_Pad" H 850 7050 50  0001 C CNN
F 3 "~" H 850 7050 50  0001 C CNN
	1    850  7050
	1    0    0    -1  
$EndComp
$Comp
L Mechanical:Fiducial FID1
U 1 1 5DDED2DB
P 1700 6450
F 0 "FID1" H 1785 6496 50  0000 L CNN
F 1 "Fiducial" H 1785 6405 50  0000 L CNN
F 2 "Fiducial:Fiducial_0.5mm_Mask1.5mm" H 1700 6450 50  0001 C CNN
F 3 "~" H 1700 6450 50  0001 C CNN
	1    1700 6450
	1    0    0    -1  
$EndComp
$Comp
L Mechanical:Fiducial FID2
U 1 1 5DDED360
P 1700 6650
F 0 "FID2" H 1785 6696 50  0000 L CNN
F 1 "Fiducial" H 1785 6605 50  0000 L CNN
F 2 "Fiducial:Fiducial_0.5mm_Mask1.5mm" H 1700 6650 50  0001 C CNN
F 3 "~" H 1700 6650 50  0001 C CNN
	1    1700 6650
	1    0    0    -1  
$EndComp
$Comp
L Mechanical:Fiducial FID3
U 1 1 5DDED41F
P 1700 6850
F 0 "FID3" H 1785 6896 50  0000 L CNN
F 1 "Fiducial" H 1785 6805 50  0000 L CNN
F 2 "Fiducial:Fiducial_0.5mm_Mask1.5mm" H 1700 6850 50  0001 C CNN
F 3 "~" H 1700 6850 50  0001 C CNN
	1    1700 6850
	1    0    0    -1  
$EndComp
$Comp
L Mechanical:Fiducial FID4
U 1 1 5DDED6DE
P 1700 7050
F 0 "FID4" H 1785 7096 50  0000 L CNN
F 1 "Fiducial" H 1785 7005 50  0000 L CNN
F 2 "Fiducial:Fiducial_0.5mm_Mask1.5mm" H 1700 7050 50  0001 C CNN
F 3 "~" H 1700 7050 50  0001 C CNN
	1    1700 7050
	1    0    0    -1  
$EndComp
$Comp
L Mechanical:Fiducial FID5
U 1 1 5DDED9A4
P 1700 7250
F 0 "FID5" H 1785 7296 50  0000 L CNN
F 1 "Fiducial" H 1785 7205 50  0000 L CNN
F 2 "Fiducial:Fiducial_0.5mm_Mask1.5mm" H 1700 7250 50  0001 C CNN
F 3 "~" H 1700 7250 50  0001 C CNN
	1    1700 7250
	1    0    0    -1  
$EndComp
$Comp
L Graphic:Logo_Open_Hardware_Small #LOGO1
U 1 1 5DDFA556
P 950 900
F 0 "#LOGO1" H 950 1175 50  0001 C CNN
F 1 "Logo_Open_Hardware_Small" H 950 675 50  0001 C CNN
F 2 "Symbol:OSHW-Logo2_9.8x8mm_SilkScreen" H 950 900 50  0001 C CNN
F 3 "~" H 950 900 50  0001 C CNN
	1    950  900 
	1    0    0    -1  
$EndComp
$EndSCHEMATC
