EESchema Schematic File Version 4
EELAYER 30 0
EELAYER END
$Descr A4 11693 8268
encoding utf-8
Sheet 2 6
Title "PQ9ISH COMMS V/U"
Date "2019-11-26"
Rev "0.9.5"
Comp "Libre Space Foundation"
Comment1 ""
Comment2 ""
Comment3 ""
Comment4 ""
$EndDescr
Text HLabel 8950 4400 3    60   Input ~ 0
AX5043_SEL
Text HLabel 10050 3650 2    60   Input ~ 0
RF_MISO
Text HLabel 10050 3550 2    60   Input ~ 0
RF_MOSI
Text HLabel 10050 3750 2    60   Input ~ 0
RF_SCK
Text HLabel 10050 3350 2    60   Input ~ 0
RF_IRQ
$Comp
L power:GND #PWR01
U 1 1 5A7C45B5
P 8650 2500
F 0 "#PWR01" H 8650 2250 50  0001 C CNN
F 1 "GND" H 8650 2350 50  0000 C CNN
F 2 "" H 8650 2500 50  0001 C CNN
F 3 "" H 8650 2500 50  0001 C CNN
	1    8650 2500
	-1   0    0    1   
$EndComp
$Comp
L power:GND #PWR02
U 1 1 5A7C45E1
P 9450 2300
F 0 "#PWR02" H 9450 2050 50  0001 C CNN
F 1 "GND" H 9450 2150 50  0000 C CNN
F 2 "" H 9450 2300 50  0001 C CNN
F 3 "" H 9450 2300 50  0001 C CNN
	1    9450 2300
	1    0    0    -1  
$EndComp
$Comp
L Device:C C21
U 1 1 5A7C4720
P 9450 2050
F 0 "C21" H 9475 2150 50  0000 L CNN
F 1 "4.7uF" H 9475 1950 50  0000 L CNN
F 2 "Capacitor_SMD:C_0603_1608Metric_Pad1.05x0.95mm_HandSolder" H 9488 1900 50  0001 C CNN
F 3 "" H 9450 2050 50  0001 C CNN
F 4 "GRM188R60J475KE19D" H 0   0   50  0001 C CNN "Part Number"
	1    9450 2050
	1    0    0    -1  
$EndComp
$Comp
L Device:L L8
U 1 1 5A7C4DB2
P 7000 3750
F 0 "L8" H 6950 3750 50  0000 C CNN
F 1 "100nH" H 6850 3650 50  0000 C CNN
F 2 "Inductor_SMD:L_0603_1608Metric_Pad1.05x0.95mm_HandSolder" H 7000 3750 50  0001 C CNN
F 3 "" H 7000 3750 50  0001 C CNN
F 4 "36501JR10J" H 0   0   50  0001 C CNN "Part Number"
	1    7000 3750
	1    0    0    -1  
$EndComp
$Comp
L Device:L L11
U 1 1 5A7C4DE9
P 7400 4500
F 0 "L11" H 7550 4550 50  0000 C CNN
F 1 "100nH" H 7600 4450 50  0000 C CNN
F 2 "Inductor_SMD:L_0603_1608Metric_Pad1.05x0.95mm_HandSolder" H 7400 4500 50  0001 C CNN
F 3 "" H 7400 4500 50  0001 C CNN
F 4 "36501JR10J" H -200 0   50  0001 C CNN "Part Number"
	1    7400 4500
	1    0    0    -1  
$EndComp
$Comp
L Device:L L10
U 1 1 5A7C4E06
P 5400 3750
F 0 "L10" H 5300 3800 50  0000 C CNN
F 1 "27nH" H 5550 3800 50  0000 C CNN
F 2 "Inductor_SMD:L_0603_1608Metric_Pad1.05x0.95mm_HandSolder" H 5400 3750 50  0001 C CNN
F 3 "" H 5400 3750 50  0001 C CNN
F 4 "LQW18AN27NJ8ZD" H 0   0   50  0001 C CNN "Part Number"
	1    5400 3750
	-1   0    0    1   
$EndComp
$Comp
L Device:L L6
U 1 1 5A7C4E83
P 5300 3350
F 0 "L6" V 5250 3350 50  0000 C CNN
F 1 "27nH" V 5375 3350 50  0000 C CNN
F 2 "Inductor_SMD:L_0603_1608Metric_Pad1.05x0.95mm_HandSolder" H 5300 3350 50  0001 C CNN
F 3 "" H 5300 3350 50  0001 C CNN
F 4 "LQW18AN27NJ8ZD" H 0   0   50  0001 C CNN "Part Number"
	1    5300 3350
	0    1    1    0   
$EndComp
$Comp
L Device:L L9
U 1 1 5A7C4EE4
P 6750 4350
F 0 "L9" V 6700 4350 50  0000 C CNN
F 1 "43nH" V 6825 4350 50  0000 C CNN
F 2 "Inductor_SMD:L_0603_1608Metric_Pad1.05x0.95mm_HandSolder" H 6750 4350 50  0001 C CNN
F 3 "" H 6750 4350 50  0001 C CNN
F 4 "LQW18AN43NJ8ZD" H 0   0   50  0001 C CNN "Part Number"
	1    6750 4350
	0    1    1    0   
$EndComp
$Comp
L Device:L L7
U 1 1 5A7C4F29
P 6000 4350
F 0 "L7" V 5950 4350 50  0000 C CNN
F 1 "4.7nH" V 6075 4350 50  0000 C CNN
F 2 "Inductor_SMD:L_0603_1608Metric_Pad1.05x0.95mm_HandSolder" H 6000 4350 50  0001 C CNN
F 3 "" H 6000 4350 50  0001 C CNN
F 4 "0603HP-4N7XGLW" H 0   0   50  0001 C CNN "Part Number"
	1    6000 4350
	0    1    1    0   
$EndComp
$Comp
L Device:C C19
U 1 1 5A7C4F4E
P 7250 2800
F 0 "C19" H 7275 2900 50  0000 L CNN
F 1 "100pF" H 7275 2700 50  0000 L CNN
F 2 "Capacitor_SMD:C_0603_1608Metric_Pad1.05x0.95mm_HandSolder" H 7288 2650 50  0001 C CNN
F 3 "" H 7250 2800 50  0001 C CNN
F 4 "CBR06C101F5GAC" H 7250 2800 50  0001 C CNN "Part Number"
	1    7250 2800
	1    0    0    -1  
$EndComp
$Comp
L Device:C C15
U 1 1 5A7C5024
P 5650 3750
F 0 "C15" H 5675 3850 50  0000 L CNN
F 1 "5.6pF" H 5675 3650 50  0000 L CNN
F 2 "Capacitor_SMD:C_0603_1608Metric_Pad1.05x0.95mm_HandSolder" H 5688 3600 50  0001 C CNN
F 3 "" H 5650 3750 50  0001 C CNN
F 4 "CBR06C569B5GAC" H 0   0   50  0001 C CNN "Part Number"
	1    5650 3750
	1    0    0    -1  
$EndComp
$Comp
L Device:C C16
U 1 1 5A7C5091
P 5150 3550
F 0 "C16" V 5200 3350 50  0000 L CNN
F 1 "5.1pF" V 5300 3450 50  0000 L CNN
F 2 "Capacitor_SMD:C_0603_1608Metric_Pad1.05x0.95mm_HandSolder" H 5188 3400 50  0001 C CNN
F 3 "" H 5150 3550 50  0001 C CNN
F 4 "CBR06C519B5GAC" H 0   0   50  0001 C CNN "Part Number"
	1    5150 3550
	0    1    1    0   
$EndComp
$Comp
L Device:C C13
U 1 1 5A7C50D8
P 4750 3550
F 0 "C13" V 4600 3500 50  0000 L CNN
F 1 "220pF" V 4900 3450 50  0000 L CNN
F 2 "Capacitor_SMD:C_0603_1608Metric_Pad1.05x0.95mm_HandSolder" H 4788 3400 50  0001 C CNN
F 3 "" H 4750 3550 50  0001 C CNN
F 4 "VJ0603D221KXAAJ" H 0   0   50  0001 C CNN "Part Number"
	1    4750 3550
	0    1    1    0   
$EndComp
$Comp
L Device:C C18
U 1 1 5A7C5113
P 7100 4350
F 0 "C18" V 6950 4250 50  0000 L CNN
F 1 "4.3pF" V 7300 4300 50  0000 L CNN
F 2 "Capacitor_SMD:C_0603_1608Metric_Pad1.05x0.95mm_HandSolder" H 7138 4200 50  0001 C CNN
F 3 "" H 7100 4350 50  0001 C CNN
F 4 "CBR06C439B5GAC" H 0   0   50  0001 C CNN "Part Number"
	1    7100 4350
	0    1    1    0   
$EndComp
$Comp
L Device:C C17
U 1 1 5A7C515E
P 6450 4650
F 0 "C17" H 6475 4750 50  0000 L CNN
F 1 "5.6pF" H 6200 4750 50  0000 L CNN
F 2 "Capacitor_SMD:C_0603_1608Metric_Pad1.05x0.95mm_HandSolder" H 6488 4500 50  0001 C CNN
F 3 "" H 6450 4650 50  0001 C CNN
F 4 "CBR06C569B5GAC" H 0   0   50  0001 C CNN "Part Number"
	1    6450 4650
	-1   0    0    1   
$EndComp
$Comp
L Device:C C14
U 1 1 5A7C51C3
P 6000 4650
F 0 "C14" V 5850 4600 50  0000 L CNN
F 1 "6.8pF" V 5750 4550 50  0000 L CNN
F 2 "Capacitor_SMD:C_0603_1608Metric_Pad1.05x0.95mm_HandSolder" H 6038 4500 50  0001 C CNN
F 3 "" H 6000 4650 50  0001 C CNN
F 4 "06035U6R8BAT2A" H 0   0   50  0001 C CNN "Part Number"
	1    6000 4650
	0    -1   -1   0   
$EndComp
$Comp
L power:GND #PWR04
U 1 1 5A7C5C9E
P 6450 4900
F 0 "#PWR04" H 6450 4650 50  0001 C CNN
F 1 "GND" H 6450 4750 50  0000 C CNN
F 2 "" H 6450 4900 50  0001 C CNN
F 3 "" H 6450 4900 50  0001 C CNN
	1    6450 4900
	1    0    0    -1  
$EndComp
$Comp
L power:GND #PWR06
U 1 1 5A7C5D04
P 7400 4700
F 0 "#PWR06" H 7400 4450 50  0001 C CNN
F 1 "GND" H 7400 4550 50  0000 C CNN
F 2 "" H 7400 4700 50  0001 C CNN
F 3 "" H 7400 4700 50  0001 C CNN
	1    7400 4700
	1    0    0    -1  
$EndComp
$Comp
L power:GND #PWR07
U 1 1 5A7C5D36
P 5650 3950
F 0 "#PWR07" H 5650 3700 50  0001 C CNN
F 1 "GND" H 5650 3800 50  0000 C CNN
F 2 "" H 5650 3950 50  0001 C CNN
F 3 "" H 5650 3950 50  0001 C CNN
	1    5650 3950
	1    0    0    -1  
$EndComp
$Comp
L power:GND #PWR08
U 1 1 5A7C5D68
P 5400 3950
F 0 "#PWR08" H 5400 3700 50  0001 C CNN
F 1 "GND" H 5400 3800 50  0000 C CNN
F 2 "" H 5400 3950 50  0001 C CNN
F 3 "" H 5400 3950 50  0001 C CNN
	1    5400 3950
	1    0    0    -1  
$EndComp
$Comp
L Connector:Conn_Coaxial J2
U 1 1 5A7C6E33
P 1150 3550
F 0 "J2" H 1160 3670 50  0000 C CNN
F 1 "MMCX" V 1265 3550 50  0000 C CNN
F 2 "lsf-kicad-lib:CONMMCX002" H 1150 3550 50  0001 C CNN
F 3 "" H 1150 3550 50  0001 C CNN
F 4 "CONMMCX002-SMD" H 1150 3550 50  0001 C CNN "Part Number"
	1    1150 3550
	-1   0    0    -1  
$EndComp
$Comp
L power:GND #PWR09
U 1 1 5A7C6FF4
P 1150 3950
F 0 "#PWR09" H 1150 3700 50  0001 C CNN
F 1 "GND" H 1150 3800 50  0000 C CNN
F 2 "" H 1150 3950 50  0001 C CNN
F 3 "" H 1150 3950 50  0001 C CNN
	1    1150 3950
	1    0    0    -1  
$EndComp
$Sheet
S 4450 4250 1000 700 
U 5A7D0D5C
F0 "Power Amplifier" 60
F1 "Power_Amplifier.sch" 60
F2 "PDET" I R 5450 4500 60 
F3 "PA_RF_IN" I R 5450 4350 50 
F4 "PA_RF_OUT" I L 4450 4350 50 
F5 "PowerDown" I L 4450 4500 50 
$EndSheet
$Comp
L power:GND #PWR011
U 1 1 5A7D47C5
P 9250 4350
F 0 "#PWR011" H 9250 4100 50  0001 C CNN
F 1 "GND" H 9250 4200 50  0000 C CNN
F 2 "" H 9250 4350 50  0001 C CNN
F 3 "" H 9250 4350 50  0001 C CNN
	1    9250 4350
	1    0    0    -1  
$EndComp
Wire Wire Line
	8950 4250 8950 4400
Wire Wire Line
	9850 3350 10050 3350
Wire Wire Line
	10050 3550 9850 3550
Wire Wire Line
	9850 3650 10050 3650
Wire Wire Line
	10050 3750 9850 3750
Wire Wire Line
	9450 1600 9450 1750
Wire Wire Line
	9450 2200 9450 2300
Connection ~ 9450 1750
Wire Wire Line
	8650 2500 8650 2650
Wire Wire Line
	8650 2650 8550 2650
Wire Wire Line
	7650 3150 7650 2650
Wire Wire Line
	7650 2650 7250 2650
Wire Wire Line
	7650 4250 7950 4250
Wire Wire Line
	7650 3450 7000 3450
Wire Wire Line
	5400 3950 5400 3900
Wire Wire Line
	5650 3550 5650 3600
Wire Wire Line
	5650 3900 5650 3950
Wire Wire Line
	4900 3550 4950 3550
Wire Wire Line
	5150 3350 4950 3350
Wire Wire Line
	4950 3350 4950 3550
Connection ~ 4950 3550
Wire Wire Line
	6950 4350 6900 4350
Wire Wire Line
	6150 4350 6250 4350
Wire Wire Line
	5750 4350 5750 4650
Wire Wire Line
	6450 4350 6450 4500
Connection ~ 6450 4350
Wire Wire Line
	6450 4800 6450 4900
Wire Wire Line
	4300 4350 4450 4350
Text GLabel 10050 3250 2    60   Input ~ 0
PA_POWER_EN
Text GLabel 1200 4950 0    60   Input ~ 0
PA_POWER_EN
NoConn ~ 8350 4250
NoConn ~ 8850 4250
Wire Wire Line
	5450 4500 5650 4500
$Comp
L power:GND #PWR012
U 1 1 5A84E15A
P 7250 3100
F 0 "#PWR012" H 7250 2850 50  0001 C CNN
F 1 "GND" H 7250 2950 50  0000 C CNN
F 2 "" H 7250 3100 50  0001 C CNN
F 3 "" H 7250 3100 50  0001 C CNN
	1    7250 3100
	1    0    0    -1  
$EndComp
Wire Wire Line
	7250 3100 7250 2950
Wire Wire Line
	9450 1750 9450 1900
Wire Wire Line
	4950 3550 5000 3550
Wire Wire Line
	6450 4350 6600 4350
Wire Wire Line
	7250 3550 7650 3550
$Comp
L power:VCC #PWR03
U 1 1 5A867315
P 9450 1600
F 0 "#PWR03" H 9450 1450 50  0001 C CNN
F 1 "VCC" H 9467 1773 50  0000 C CNN
F 2 "" H 9450 1600 50  0001 C CNN
F 3 "" H 9450 1600 50  0001 C CNN
	1    9450 1600
	1    0    0    -1  
$EndComp
$Comp
L lsf-kicad:KT1612A U2
U 1 1 5A8A39F7
P 6750 1300
F 0 "U2" H 6421 1346 50  0000 R CNN
F 1 "KT1612A" H 6421 1255 50  0000 R CNN
F 2 "lsf-kicad-lib:KT1612" H 6750 1300 50  0001 C CNN
F 3 "https://www.mouser.com/ds/2/40/kt1612_e-1140390.pdf" H 6750 1300 50  0001 C CNN
F 4 "KT1612A26000AAW19TBT" H -550 50  50  0001 C CNN "Part Number"
	1    6750 1300
	1    0    0    -1  
$EndComp
$Comp
L power:GND #PWR045
U 1 1 5A85FBA0
P 6850 2000
F 0 "#PWR045" H 6850 1750 50  0001 C CNN
F 1 "GND" H 6855 1827 50  0000 C CNN
F 2 "" H 6850 2000 50  0001 C CNN
F 3 "" H 6850 2000 50  0001 C CNN
	1    6850 2000
	1    0    0    -1  
$EndComp
$Comp
L Device:C C30
U 1 1 5A85FC99
P 7800 1800
F 0 "C30" H 7915 1846 50  0000 L CNN
F 1 "1nF" H 7915 1755 50  0000 L CNN
F 2 "Capacitor_SMD:C_0603_1608Metric_Pad1.05x0.95mm_HandSolder" H 7838 1650 50  0001 C CNN
F 3 "" H 7800 1800 50  0001 C CNN
F 4 "GCD188R71H102KA01D" H -550 50  50  0001 C CNN "Part Number"
	1    7800 1800
	1    0    0    -1  
$EndComp
$Comp
L Device:C C28
U 1 1 5A85FFB0
P 6050 1500
F 0 "C28" H 6165 1546 50  0000 L CNN
F 1 "10nF" H 6165 1455 50  0000 L CNN
F 2 "Capacitor_SMD:C_0603_1608Metric_Pad1.05x0.95mm_HandSolder" H 6088 1350 50  0001 C CNN
F 3 "" H 6050 1500 50  0001 C CNN
F 4 "C0603C103K9RACTU" H 6050 1500 50  0001 C CNN "Part Number"
	1    6050 1500
	1    0    0    -1  
$EndComp
Connection ~ 6850 1800
Wire Wire Line
	6050 1800 6050 1650
Wire Wire Line
	7800 1100 7800 1650
$Comp
L power:VCC #PWR043
U 1 1 5A86BCCD
P 6050 800
F 0 "#PWR043" H 6050 650 50  0001 C CNN
F 1 "VCC" H 6067 973 50  0000 C CNN
F 2 "" H 6050 800 50  0001 C CNN
F 3 "" H 6050 800 50  0001 C CNN
	1    6050 800 
	1    0    0    -1  
$EndComp
Wire Wire Line
	6850 1800 6850 2000
Wire Wire Line
	5750 4650 5850 4650
Wire Wire Line
	6150 4650 6250 4650
Wire Wire Line
	6250 4650 6250 4350
Connection ~ 6250 4350
Wire Wire Line
	6250 4350 6450 4350
Wire Wire Line
	5450 4350 5750 4350
Wire Wire Line
	5750 4350 5850 4350
Connection ~ 5750 4350
Wire Wire Line
	7400 4650 7400 4700
Connection ~ 7250 4350
Wire Wire Line
	7250 4350 7400 4350
$Comp
L power:GND #PWR027
U 1 1 5A8C2DAE
P 7000 3950
F 0 "#PWR027" H 7000 3700 50  0001 C CNN
F 1 "GND" H 7000 3800 50  0000 C CNN
F 2 "" H 7000 3950 50  0001 C CNN
F 3 "" H 7000 3950 50  0001 C CNN
	1    7000 3950
	1    0    0    -1  
$EndComp
$Comp
L power:GND #PWR048
U 1 1 5A8C2DE5
P 7950 4700
F 0 "#PWR048" H 7950 4450 50  0001 C CNN
F 1 "GND" H 7950 4550 50  0000 C CNN
F 2 "" H 7950 4700 50  0001 C CNN
F 3 "" H 7950 4700 50  0001 C CNN
	1    7950 4700
	1    0    0    -1  
$EndComp
Wire Wire Line
	7000 3900 7000 3950
Wire Wire Line
	7000 3450 7000 3550
$Comp
L Device:L L12
U 1 1 5A8E1013
P 6000 3550
F 0 "L12" V 5950 3550 50  0000 C CNN
F 1 "43nH" V 6075 3550 50  0000 C CNN
F 2 "Inductor_SMD:L_0603_1608Metric_Pad1.05x0.95mm_HandSolder" H 6000 3550 50  0001 C CNN
F 3 "" H 6000 3550 50  0001 C CNN
F 4 "LQW18AN43NJ8ZD" H 0   0   50  0001 C CNN "Part Number"
	1    6000 3550
	0    1    1    0   
$EndComp
$Comp
L Device:C C2
U 1 1 5A8E1069
P 6350 3550
F 0 "C2" V 6500 3500 50  0000 L CNN
F 1 "4.3pF" V 6400 3650 50  0000 L CNN
F 2 "Capacitor_SMD:C_0603_1608Metric_Pad1.05x0.95mm_HandSolder" H 6388 3400 50  0001 C CNN
F 3 "" H 6350 3550 50  0001 C CNN
F 4 "CBR06C439B5GAC" H 0   0   50  0001 C CNN "Part Number"
	1    6350 3550
	0    1    1    0   
$EndComp
Wire Wire Line
	5650 3550 5850 3550
Wire Wire Line
	6150 3550 6200 3550
Wire Wire Line
	6500 3550 7000 3550
Connection ~ 7000 3550
Wire Wire Line
	7000 3550 7000 3600
$Comp
L Device:C C1
U 1 1 5A8EFBDB
P 6150 3100
F 0 "C1" H 6175 3200 50  0000 L CNN
F 1 "11pF" H 6175 3000 50  0000 L CNN
F 2 "Capacitor_SMD:C_0603_1608Metric_Pad1.05x0.95mm_HandSolder" H 6188 2950 50  0001 C CNN
F 3 "" H 6150 3100 50  0001 C CNN
F 4 "CBR06C110F5GAC" H 0   0   50  0001 C CNN "Part Number"
	1    6150 3100
	1    0    0    -1  
$EndComp
$Comp
L power:GND #PWR05
U 1 1 5A8EFC76
P 6150 2900
F 0 "#PWR05" H 6150 2650 50  0001 C CNN
F 1 "GND" H 6150 2750 50  0000 C CNN
F 2 "" H 6150 2900 50  0001 C CNN
F 3 "" H 6150 2900 50  0001 C CNN
	1    6150 2900
	-1   0    0    1   
$EndComp
Wire Wire Line
	6150 2900 6150 2950
Wire Wire Line
	5400 3600 5400 3550
Wire Wire Line
	6150 3250 6150 3350
$Comp
L Device:L L13
U 1 1 5A8F88B6
P 6350 3350
F 0 "L13" V 6300 3350 50  0000 C CNN
F 1 "43nH" V 6425 3350 50  0000 C CNN
F 2 "Inductor_SMD:L_0603_1608Metric_Pad1.05x0.95mm_HandSolder" H 6350 3350 50  0001 C CNN
F 3 "" H 6350 3350 50  0001 C CNN
F 4 "LQW18AN43NJ8ZD" H 0   0   50  0001 C CNN "Part Number"
	1    6350 3350
	0    1    1    0   
$EndComp
$Comp
L Device:C C31
U 1 1 5A8F88BC
P 6750 3350
F 0 "C31" V 6900 3300 50  0000 L CNN
F 1 "4.3pF" V 6800 3450 50  0000 L CNN
F 2 "Capacitor_SMD:C_0603_1608Metric_Pad1.05x0.95mm_HandSolder" H 6788 3200 50  0001 C CNN
F 3 "" H 6750 3350 50  0001 C CNN
F 4 "CBR06C439B5GAC" H 0   0   50  0001 C CNN "Part Number"
	1    6750 3350
	0    1    1    0   
$EndComp
Wire Wire Line
	6500 3350 6600 3350
Wire Wire Line
	6150 3350 6200 3350
Wire Wire Line
	6900 3350 7000 3350
$Comp
L Device:L L14
U 1 1 5A8FF8A8
P 7000 3000
F 0 "L14" H 6900 3000 50  0000 C CNN
F 1 "100nH" H 6850 2900 50  0000 C CNN
F 2 "Inductor_SMD:L_0603_1608Metric_Pad1.05x0.95mm_HandSolder" H 7000 3000 50  0001 C CNN
F 3 "" H 7000 3000 50  0001 C CNN
F 4 "36501JR10J" H 0   0   50  0001 C CNN "Part Number"
	1    7000 3000
	1    0    0    -1  
$EndComp
$Comp
L power:GND #PWR026
U 1 1 5A8FF90C
P 7000 2750
F 0 "#PWR026" H 7000 2500 50  0001 C CNN
F 1 "GND" H 7000 2600 50  0000 C CNN
F 2 "" H 7000 2750 50  0001 C CNN
F 3 "" H 7000 2750 50  0001 C CNN
	1    7000 2750
	-1   0    0    1   
$EndComp
Wire Wire Line
	7000 2750 7000 2850
Wire Wire Line
	7000 3150 7000 3350
Connection ~ 7000 3350
Wire Wire Line
	7000 3350 7650 3350
Text Label 7450 3350 0    50   ~ 0
ANTP
Text Label 7450 3450 0    50   ~ 0
ANTN
Text Label 7450 3550 0    50   ~ 0
ANTP1
Text Label 4600 3550 2    50   ~ 0
RF_IN1
Text Label 2000 3550 0    50   ~ 0
ANT_CON
Text Label 7650 2750 0    50   ~ 0
VDD_ANA1
Text Label 7650 4100 0    50   ~ 0
VDD_ANA2
Text Label 8450 4450 2    50   ~ 0
L2
Text Label 7800 2350 0    50   ~ 0
CLK16P
Text Label 7450 1100 0    50   ~ 0
TCXO_OUT
Text HLabel 5950 5600 2    50   Input ~ 0
PA_PDet
Wire Wire Line
	9850 3250 10000 3250
$Comp
L Connector:TestPoint TP2
U 1 1 5AE12514
P 10000 3150
AR Path="/5AE12514" Ref="TP2"  Part="1" 
AR Path="/5A285DD6/5AE12514" Ref="TP2"  Part="1" 
F 0 "TP2" H 10153 3252 50  0000 L CNN
F 1 "PA TP" H 10153 3161 50  0000 L CNN
F 2 "TestPoint:TestPoint_Pad_D1.5mm" H 10200 3150 50  0001 C CNN
F 3 "~" H 10200 3150 50  0001 C CNN
	1    10000 3150
	1    0    0    -1  
$EndComp
Wire Wire Line
	10000 3150 10000 3250
Connection ~ 10000 3250
Wire Wire Line
	10000 3250 10050 3250
$Comp
L Connector:TestPoint_Probe TP1
U 1 1 5AE15E50
P 5650 5300
AR Path="/5AE15E50" Ref="TP1"  Part="1" 
AR Path="/5A285DD6/5AE15E50" Ref="TP1"  Part="1" 
F 0 "TP1" H 5803 5402 50  0000 L CNN
F 1 "PDet TP" H 5803 5311 50  0000 L CNN
F 2 "TestPoint:TestPoint_Pad_D1.5mm" H 5850 5300 50  0001 C CNN
F 3 "~" H 5850 5300 50  0001 C CNN
	1    5650 5300
	-1   0    0    -1  
$EndComp
$Comp
L lsf-kicad:F2972 U3
U 1 1 5AE11D5B
P 3150 3750
AR Path="/5AE11D5B" Ref="U3"  Part="1" 
AR Path="/5A285DD6/5AE11D5B" Ref="U3"  Part="1" 
F 0 "U3" H 3300 4150 50  0000 C CNN
F 1 "F2972" H 3150 3750 50  0000 C CNN
F 2 "lsf-kicad-lib:IDT_NEG-12-1EP_2x2mm_P0.5mm_EP1.1x1.1mm_ThermalVias" H 3150 3750 50  0001 C CNN
F 3 "https://www.idt.com/document/dst/f2972-datasheet" H 3150 3750 50  0001 C CNN
F 4 "F2972NEGK" H 3400 4150 50  0001 C CNN "Part Number"
	1    3150 3750
	1    0    0    -1  
$EndComp
Wire Wire Line
	1350 3550 1400 3550
Wire Wire Line
	2100 4500 4450 4500
Wire Wire Line
	4300 3650 3650 3650
Wire Wire Line
	4300 3650 4300 4350
Text GLabel 2600 3950 0    60   Input ~ 0
RFSW_EN
Wire Wire Line
	2600 3950 2650 3950
$Comp
L power:GND #PWR051
U 1 1 5AE3B569
P 3150 4250
F 0 "#PWR051" H 3150 4000 50  0001 C CNN
F 1 "GND" H 3150 4100 50  0000 C CNN
F 2 "" H 3150 4250 50  0001 C CNN
F 3 "" H 3150 4250 50  0001 C CNN
	1    3150 4250
	1    0    0    -1  
$EndComp
$Comp
L power:VCC #PWR010
U 1 1 5AE3B5CE
P 3150 2250
F 0 "#PWR010" H 3150 2100 50  0001 C CNN
F 1 "VCC" H 3167 2423 50  0000 C CNN
F 2 "" H 3150 2250 50  0001 C CNN
F 3 "" H 3150 2250 50  0001 C CNN
	1    3150 2250
	1    0    0    -1  
$EndComp
Wire Wire Line
	5300 3550 5400 3550
Connection ~ 5650 3550
Connection ~ 5400 3550
Wire Wire Line
	5400 3550 5650 3550
Wire Wire Line
	5450 3350 6150 3350
Connection ~ 6150 3350
Wire Wire Line
	2100 4500 2100 3850
Wire Wire Line
	3650 3550 3950 3550
Text Notes 2300 4700 0    50   ~ 0
0: Tx - RF1->RFC, PA On\n1: Rx - RF2->RFC. PA Off
Text Label 4300 4050 0    50   ~ 0
RF_OUT
Wire Wire Line
	9850 2750 10050 2750
Wire Wire Line
	8850 1750 9450 1750
Wire Wire Line
	9850 2750 9850 3150
Text Notes 2300 4200 0    50   ~ 0
EN: 1\nDIS: 0
Wire Wire Line
	6050 800  6050 1350
Connection ~ 6050 800 
Wire Wire Line
	6050 800  6750 800 
Wire Wire Line
	6050 1800 6650 1800
Wire Wire Line
	6650 1800 6850 1800
Connection ~ 6650 1800
Wire Wire Line
	9350 4250 9250 4250
Connection ~ 9250 4250
Wire Wire Line
	9250 4250 9150 4250
Wire Wire Line
	9250 4350 9250 4250
$Comp
L Device:L L-VCO1
U 1 1 5C9ADAD0
P 8450 4650
F 0 "L-VCO1" H 8406 4696 50  0000 R CNN
F 1 "22nH" H 8406 4605 50  0000 R CNN
F 2 "Inductor_SMD:L_0603_1608Metric_Pad1.05x0.95mm_HandSolder" H 8450 4650 50  0001 C CNN
F 3 "~" H 8450 4650 50  0001 C CNN
F 4 "0603HP-22NXJLU" H 8450 4650 50  0001 C CNN "Part Number"
F 5 "L-VCO must be shorted if not required by frequency range" H 8450 4650 50  0001 C CNN "Comment"
	1    8450 4650
	1    0    0    -1  
$EndComp
Wire Wire Line
	8450 4250 8450 4500
Wire Wire Line
	8550 4800 8450 4800
Text Label 8550 4450 2    50   ~ 0
L1
Text Notes 8850 5350 0    50   ~ 0
L-VCO must be shorted\nif not required by frequency range
Text GLabel 10050 2750 2    60   Input ~ 0
RFSW_EN
Wire Wire Line
	8850 2650 8850 1750
Wire Wire Line
	8550 4250 8550 4800
Wire Wire Line
	7950 4700 7950 4550
Connection ~ 8650 2650
$Comp
L lsf-kicad:AX5043 U4
U 1 1 5A7DC5A0
P 8750 3450
AR Path="/5A7DC5A0" Ref="U4"  Part="1" 
AR Path="/5A285DD6/5A7DC5A0" Ref="U4"  Part="1" 
F 0 "U4" H 8750 3350 50  0000 C CNN
F 1 "AX5043" H 8750 3500 50  0000 C CNN
F 2 "Package_DFN_QFN:QFN-28-1EP_5x5mm_P0.5mm_EP3.35x3.35mm_ThermalVias" H 10050 4200 50  0001 C CNN
F 3 "https://www.onsemi.com/pub/Collateral/AX5043-D.PDF" H 10100 4100 50  0001 C CNN
F 4 "AX5043-1-TA05" H 0   0   50  0001 C CNN "Part Number"
	1    8750 3450
	1    0    0    -1  
$EndComp
Wire Wire Line
	7650 3750 7650 4250
$Comp
L Device:C C20
U 1 1 5A7C4FC3
P 7950 4400
F 0 "C20" H 8065 4446 50  0000 L CNN
F 1 "100pF" H 8065 4355 50  0000 L CNN
F 2 "Capacitor_SMD:C_0603_1608Metric_Pad1.05x0.95mm_HandSolder" H 7988 4250 50  0001 C CNN
F 3 "" H 7950 4400 50  0001 C CNN
F 4 "CBR06C101F5GAC" H 7950 4400 50  0001 C CNN "Part Number"
	1    7950 4400
	1    0    0    -1  
$EndComp
$Comp
L lsf-kicad:MS-156C3 TP3
U 1 1 5CED4027
P 4150 3500
F 0 "TP3" H 4150 3225 50  0000 C CNN
F 1 "RF TP" H 4150 3316 50  0000 C CNN
F 2 "lsf-kicad-lib:MS-156C3" H 4150 3700 50  0001 C CNN
F 3 "~" H 4150 3700 50  0001 C CNN
F 4 "MS-156C" H 4150 3500 50  0001 C CNN "Part Number"
	1    4150 3500
	-1   0    0    1   
$EndComp
Wire Wire Line
	4350 3550 4600 3550
Wire Wire Line
	7250 3550 7250 4350
$Comp
L power:GND #PWR0114
U 1 1 5CE9D57F
P 3950 3250
F 0 "#PWR0114" H 3950 3000 50  0001 C CNN
F 1 "GND" H 3950 3100 50  0000 C CNN
F 2 "" H 3950 3250 50  0001 C CNN
F 3 "" H 3950 3250 50  0001 C CNN
	1    3950 3250
	-1   0    0    1   
$EndComp
Wire Wire Line
	3950 3250 3950 3450
Text Label 3750 3550 0    50   ~ 0
RF_IN
$Comp
L Device:C C40
U 1 1 5D3E34DC
P 8450 1800
F 0 "C40" H 8565 1846 50  0000 L CNN
F 1 "1nF" H 8565 1755 50  0000 L CNN
F 2 "Capacitor_SMD:C_0603_1608Metric_Pad1.05x0.95mm_HandSolder" H 8488 1650 50  0001 C CNN
F 3 "" H 8450 1800 50  0001 C CNN
F 4 "GCD188R71H102KA01D" H 100 50  50  0001 C CNN "Part Number"
	1    8450 1800
	1    0    0    -1  
$EndComp
Wire Wire Line
	8450 1500 8450 1650
Wire Wire Line
	8450 1950 8450 2150
Text Label 8450 2350 2    50   ~ 0
CLK16N
Wire Wire Line
	7800 2550 8350 2550
Wire Wire Line
	8350 2550 8350 2650
Wire Wire Line
	7800 1950 7800 2150
$Comp
L power:GND #PWR021
U 1 1 5D3F720C
P 8450 1500
F 0 "#PWR021" H 8450 1250 50  0001 C CNN
F 1 "GND" H 8450 1350 50  0000 C CNN
F 2 "" H 8450 1500 50  0001 C CNN
F 3 "" H 8450 1500 50  0001 C CNN
	1    8450 1500
	-1   0    0    1   
$EndComp
$Comp
L Device:R R6
U 1 1 5D3FBC4F
P 8150 2150
F 0 "R6" V 7943 2150 50  0000 C CNN
F 1 "1k" V 8034 2150 50  0000 C CNN
F 2 "Resistor_SMD:R_0603_1608Metric_Pad1.05x0.95mm_HandSolder" V 8080 2150 50  0001 C CNN
F 3 "~" H 8150 2150 50  0001 C CNN
F 4 "MCT06030C1001FP500" H 8150 2150 50  0001 C CNN "Part Number"
	1    8150 2150
	0    1    1    0   
$EndComp
Wire Wire Line
	8000 2150 7800 2150
Connection ~ 7800 2150
Wire Wire Line
	7800 2150 7800 2550
Wire Wire Line
	8300 2150 8450 2150
Connection ~ 8450 2150
Wire Wire Line
	8450 2150 8450 2650
Wire Wire Line
	7250 1100 7800 1100
$Comp
L Device:C C41
U 1 1 5D789471
P 2650 2950
F 0 "C41" H 2765 2996 50  0000 L CNN
F 1 "10nF" H 2765 2905 50  0000 L CNN
F 2 "Capacitor_SMD:C_0603_1608Metric_Pad1.05x0.95mm_HandSolder" H 2688 2800 50  0001 C CNN
F 3 "~" H 2650 2950 50  0001 C CNN
F 4 "C0603C103K9RACTU" H 2650 2950 50  0001 C CNN "Part Number"
	1    2650 2950
	1    0    0    -1  
$EndComp
$Comp
L Device:C C29
U 1 1 5D78A732
P 2200 2950
F 0 "C29" H 2315 2996 50  0000 L CNN
F 1 "100nF" H 2315 2905 50  0000 L CNN
F 2 "Capacitor_SMD:C_0603_1608Metric_Pad1.05x0.95mm_HandSolder" H 2238 2800 50  0001 C CNN
F 3 "~" H 2200 2950 50  0001 C CNN
F 4 "C0603C104K9RACTU" H 2200 2950 50  0001 C CNN "Part Number"
	1    2200 2950
	1    0    0    -1  
$EndComp
$Comp
L power:GND #PWR040
U 1 1 5D78AF3C
P 2200 3200
F 0 "#PWR040" H 2200 2950 50  0001 C CNN
F 1 "GND" H 2205 3027 50  0000 C CNN
F 2 "" H 2200 3200 50  0001 C CNN
F 3 "" H 2200 3200 50  0001 C CNN
	1    2200 3200
	1    0    0    -1  
$EndComp
$Comp
L power:GND #PWR042
U 1 1 5D78B676
P 2650 3200
F 0 "#PWR042" H 2650 2950 50  0001 C CNN
F 1 "GND" H 2655 3027 50  0000 C CNN
F 2 "" H 2650 3200 50  0001 C CNN
F 3 "" H 2650 3200 50  0001 C CNN
	1    2650 3200
	1    0    0    -1  
$EndComp
Wire Wire Line
	2200 2800 2650 2800
Connection ~ 3150 2800
Wire Wire Line
	3150 2800 3150 3350
Connection ~ 2650 2800
Wire Wire Line
	2650 2800 3150 2800
Wire Wire Line
	2650 3100 2650 3200
Wire Wire Line
	2200 3100 2200 3200
NoConn ~ 8750 4250
NoConn ~ 8650 4250
$Comp
L Device:R R11
U 1 1 5D873740
P 5650 5450
F 0 "R11" H 5720 5496 50  0000 L CNN
F 1 "10k" H 5720 5405 50  0000 L CNN
F 2 "Resistor_SMD:R_0603_1608Metric_Pad1.05x0.95mm_HandSolder" V 5580 5450 50  0001 C CNN
F 3 "~" H 5650 5450 50  0001 C CNN
F 4 "RE0603BRE0710KL" H 5650 5450 50  0001 C CNN "Part Number"
	1    5650 5450
	1    0    0    -1  
$EndComp
$Comp
L Device:R R12
U 1 1 5D873F87
P 5650 5800
F 0 "R12" H 5720 5846 50  0000 L CNN
F 1 "20k" H 5720 5755 50  0000 L CNN
F 2 "Resistor_SMD:R_0603_1608Metric_Pad1.05x0.95mm_HandSolder" V 5580 5800 50  0001 C CNN
F 3 "~" H 5650 5800 50  0001 C CNN
F 4 "CRCW060320K0FKEAC" H 5650 5800 50  0001 C CNN "Part Number"
	1    5650 5800
	1    0    0    -1  
$EndComp
$Comp
L power:GND #PWR052
U 1 1 5D87455C
P 5650 6050
F 0 "#PWR052" H 5650 5800 50  0001 C CNN
F 1 "GND" H 5655 5877 50  0000 C CNN
F 2 "" H 5650 6050 50  0001 C CNN
F 3 "" H 5650 6050 50  0001 C CNN
	1    5650 6050
	1    0    0    -1  
$EndComp
Wire Wire Line
	5950 5600 5650 5600
Wire Wire Line
	5650 5600 5650 5650
Wire Wire Line
	5650 5950 5650 6050
Connection ~ 5650 5600
Text Label 5650 5050 0    50   ~ 0
PDET
Wire Wire Line
	2100 3850 2650 3850
Wire Wire Line
	1150 3750 1150 3950
Wire Wire Line
	3150 4150 3150 4250
Connection ~ 5650 5300
Wire Wire Line
	5650 4500 5650 5300
$Comp
L Device:Ferrite_Bead FB?
U 1 1 5D884A45
P 2700 6200
AR Path="/5A285DD6/5A7D0D5C/5D884A45" Ref="FB?"  Part="1" 
AR Path="/5A285DD6/5D884A45" Ref="FB2"  Part="1" 
F 0 "FB2" V 2426 6200 50  0000 C CNN
F 1 "Ferrite_Bead" V 2517 6200 50  0000 C CNN
F 2 "Inductor_SMD:L_0603_1608Metric" V 2630 6200 50  0001 C CNN
F 3 "http://datasheet.octopart.com/742792664-W%C3%BCrth-Elektronik-datasheet-111088409.pdf" H 2700 6200 50  0001 C CNN
F 4 "742792664" H 2700 6200 50  0001 C CNN "Part Number"
	1    2700 6200
	0    -1   1    0   
$EndComp
Wire Wire Line
	3600 6200 3200 6200
Wire Wire Line
	2550 6200 2300 6200
$Comp
L power:+3.3V #PWR?
U 1 1 5D884A4D
P 2300 6200
AR Path="/5A285DD6/5A7D0D5C/5D884A4D" Ref="#PWR?"  Part="1" 
AR Path="/5A285DD6/5D884A4D" Ref="#PWR0119"  Part="1" 
F 0 "#PWR0119" H 2300 6050 50  0001 C CNN
F 1 "+3.3V" H 2315 6373 50  0000 C CNN
F 2 "" H 2300 6200 50  0001 C CNN
F 3 "" H 2300 6200 50  0001 C CNN
	1    2300 6200
	-1   0    0    -1  
$EndComp
$Comp
L power:VCC #PWR?
U 1 1 5D884A53
P 3600 6200
AR Path="/5A285DD6/5A7D0D5C/5D884A53" Ref="#PWR?"  Part="1" 
AR Path="/5A285DD6/5D884A53" Ref="#PWR0120"  Part="1" 
F 0 "#PWR0120" H 3600 6050 50  0001 C CNN
F 1 "VCC" H 3617 6373 50  0000 C CNN
F 2 "" H 3600 6200 50  0001 C CNN
F 3 "" H 3600 6200 50  0001 C CNN
	1    3600 6200
	-1   0    0    -1  
$EndComp
$Comp
L power:PWR_FLAG #FLG?
U 1 1 5D884A59
P 3200 6200
AR Path="/5A285DD6/5A7D0D5C/5D884A59" Ref="#FLG?"  Part="1" 
AR Path="/5A285DD6/5D884A59" Ref="#FLG0106"  Part="1" 
F 0 "#FLG0106" H 3200 6275 50  0001 C CNN
F 1 "PWR_FLAG" H 3200 6373 50  0000 C CNN
F 2 "" H 3200 6200 50  0001 C CNN
F 3 "~" H 3200 6200 50  0001 C CNN
	1    3200 6200
	1    0    0    -1  
$EndComp
Connection ~ 3200 6200
Wire Wire Line
	3200 6200 2850 6200
$Comp
L lsf-kicad:D_ESD D2
U 1 1 5D8C6564
P 1400 3800
F 0 "D2" V 1354 3888 50  0000 L CNN
F 1 "D_ESD" V 1445 3888 50  0000 L CNN
F 2 "Diode_SMD:D_0201_0603Metric" H 1400 3500 50  0001 C CNN
F 3 "https://assets.nexperia.com/documents/data-sheet/PESD5V0C1BSF.pdf" H 1400 3500 50  0001 C CNN
F 4 "PESD5V0C1BSF" H 1400 3800 50  0001 C CNN "Part Number"
	1    1400 3800
	0    1    1    0   
$EndComp
Connection ~ 1400 3550
Wire Wire Line
	1400 3550 2650 3550
$Comp
L power:GND #PWR054
U 1 1 5D8EF421
P 1400 4100
F 0 "#PWR054" H 1400 3850 50  0001 C CNN
F 1 "GND" H 1405 3927 50  0000 C CNN
F 2 "" H 1400 4100 50  0001 C CNN
F 3 "" H 1400 4100 50  0001 C CNN
	1    1400 4100
	1    0    0    -1  
$EndComp
Wire Wire Line
	1400 4050 1400 4100
$Comp
L Device:Ferrite_Bead FB4
U 1 1 5D81FE75
P 3150 2500
F 0 "FB4" H 3287 2546 50  0000 L CNN
F 1 "Ferrite_Bead" H 3287 2455 50  0000 L CNN
F 2 "Inductor_SMD:L_0603_1608Metric_Pad1.05x0.95mm_HandSolder" V 3080 2500 50  0001 C CNN
F 3 "http://datasheet.octopart.com/742792664-W%C3%BCrth-Elektronik-datasheet-111088409.pdf" H 3150 2500 50  0001 C CNN
F 4 "742792664" H 3150 2500 50  0001 C CNN "Part Number"
	1    3150 2500
	1    0    0    -1  
$EndComp
Wire Wire Line
	3150 2250 3150 2350
Wire Wire Line
	3150 2650 3150 2800
$Comp
L power:PWR_FLAG #FLG0107
U 1 1 5D844AFA
P 2650 2800
F 0 "#FLG0107" H 2650 2875 50  0001 C CNN
F 1 "PWR_FLAG" H 2650 2973 50  0000 C CNN
F 2 "" H 2650 2800 50  0001 C CNN
F 3 "~" H 2650 2800 50  0001 C CNN
	1    2650 2800
	1    0    0    -1  
$EndComp
$Comp
L 74xGxx:74AUP1G04 U7
U 1 1 5D7F7174
P 1700 4950
F 0 "U7" H 1675 5217 50  0000 C CNN
F 1 "74AUP1G04" H 1675 5126 50  0000 C CNN
F 2 "Package_TO_SOT_SMD:SOT-353_SC-70-5" H 1700 4950 50  0001 C CNN
F 3 "http://www.ti.com/lit/sg/scyt129e/scyt129e.pdf" H 1700 4950 50  0001 C CNN
F 4 "74AUP1G04GW" H 1700 4950 50  0001 C CNN "Part Number"
	1    1700 4950
	1    0    0    -1  
$EndComp
$Comp
L power:GND #PWR0117
U 1 1 5D7FAEBA
P 1700 5150
F 0 "#PWR0117" H 1700 4900 50  0001 C CNN
F 1 "GND" H 1705 4977 50  0000 C CNN
F 2 "" H 1700 5150 50  0001 C CNN
F 3 "" H 1700 5150 50  0001 C CNN
	1    1700 5150
	1    0    0    -1  
$EndComp
$Comp
L power:VCC #PWR0118
U 1 1 5D7FC287
P 1700 4600
F 0 "#PWR0118" H 1700 4450 50  0001 C CNN
F 1 "VCC" H 1717 4773 50  0000 C CNN
F 2 "" H 1700 4600 50  0001 C CNN
F 3 "" H 1700 4600 50  0001 C CNN
	1    1700 4600
	1    0    0    -1  
$EndComp
Wire Wire Line
	1700 5150 1700 5050
Wire Wire Line
	1700 4600 1700 4850
Wire Wire Line
	1200 4950 1400 4950
Wire Wire Line
	1950 4950 2100 4950
Wire Wire Line
	2100 4950 2100 4500
Connection ~ 2100 4500
$EndSCHEMATC
